<svg width="21" height="13" viewBox="0 0 21 13" fill="none" xmlns="http://www.w3.org/2000/svg">
<path d="M17.2042 7.15522C16.869 6.73191 16.9649 6.54359 17.2042 6.16521C17.2085 6.16089 19.9755 2.33735 20.2606 1.04066L20.2624 1.03979C20.404 0.567251 20.2624 0.219971 19.5773 0.219971H17.3105C16.7334 0.219971 16.4673 0.51801 16.3248 0.851469C16.3248 0.851469 15.1706 3.61416 13.5379 5.40499C13.0109 5.92246 12.7673 6.08832 12.4796 6.08832C12.338 6.08832 12.1177 5.92246 12.1177 5.44991V1.03979C12.1177 0.473088 11.9561 0.219971 11.4784 0.219971H7.91402C7.55206 0.219971 7.33695 0.484319 7.33695 0.730525C7.33695 1.26786 8.15332 1.39139 8.23798 2.90319V6.18335C8.23798 6.9021 8.10753 7.03427 7.81813 7.03427C7.04755 7.03427 5.17725 4.26035 4.06889 1.08558C3.84514 0.469633 3.62658 0.220835 3.04518 0.220835H0.777494C0.130446 0.220835 0 0.518874 0 0.852332C0 1.4415 0.770583 4.37092 3.58338 8.24112C5.45801 10.8829 8.09803 12.3143 10.4996 12.3143C11.9432 12.3143 12.1194 11.9964 12.1194 11.4496C12.1194 8.92531 11.989 8.68688 12.712 8.68688C13.0472 8.68688 13.6243 8.85275 14.9719 10.127C16.5122 11.6379 16.7654 12.3143 17.6275 12.3143H19.8943C20.5405 12.3143 20.8679 11.9964 20.6796 11.3692C20.2485 10.0501 17.3355 7.33663 17.2042 7.15522Z" fill="white"/>
</svg>
